…
> **Exercise:** what does this do? ``filter(dt, `Parental age` > 20,
> `number of adult worms` > 20, `fecal egg count` < 10)``

We can also select particular variables (columns) using the function
`select(tbl, cols to select)`. For example, select `id` and `number of
adult worms`:

``` r
select(dt, id, `number of adult worms`)
```

    # # A tibble: 120 x 2
    #    id     `number of adult worms`
    #    <chr>                    <dbl>
    #  1 ES11/A                      NA
    #  2 ES11/A                      NA
    #  3 ES11/A                      NA
    #  4 ES11/A                      NA
    #  5 ES11/A                      NA
    #  6 ES11/A                      39
    #  7 ES12/B                      NA
    #  8 ES12/B                      NA
    #  9 ES12/B                      NA
    # 10 ES12/B                      NA
    # # … with 110 more rows
…
> **Exercise:** find the average `number of adult worms` by `Parental
> age`. Filter the data to consider only 28 days for `time
> post-infection`.

# Ordering the data

To order the data according to one or more variables, use `arrange()`:

``` r
dt %>% arrange(`number of adult worms`)
dt %>% arrange(desc(`number of adult worms`))
```

    # # A tibble: 120 x 5
    #    `Parental age` id     `time post-infect… `fecal egg coun… `number of adult w…
    #             <dbl> <chr>               <dbl>            <dbl>               <dbl>
    #  1            165 ES41/A                 28             4.33                  12
    #  2            105 ES31/A                 28             5.31                  21
    #  3            105 ES33/C                 28             9.66                  24
    #  4            165 ES43/C                 28            10.0                   25
    #  5             45 ES21/A                 28            17.6                   26
    #  6            165 ES42/B                 28             9.27                  26
    #  7            105 ES34/D                 28            12.0                   27
    #  8            165 ES44/D                 28            11.6                   28
    #  9            165 ES45/E                 28            13.7                   28
    # 10            105 ES35/E                 28            39.8                   32
    # # … with 110 more rows
    # # A tibble: 120 x 5
    #    `Parental age` id     `time post-infect… `fecal egg coun… `number of adult w…
    #             <dbl> <chr>               <dbl>            <dbl>               <dbl>
    #  1             15 ES12/B                 28             21.9                  54
    #  2             45 ES23/C                 28             17.9                  51
    #  3             15 ES14/D                 28             28.6                  49
    #  4             45 ES22/B                 28             35.4                  49
    #  5             15 ES13/C                 28             16.4                  44
    #  6             45 ES24/D                 28             30.5                  43
    #  7             45 ES25/E                 28             20.3                  43
    #  8             15 ES11/A                 28             19.2                  39
    #  9            105 ES32/B                 28             23.6                  39
    # 10             15 ES15/E                 28             14.9                  38
    # # … with 110 more rows

# Renaming columns

To rename one or more columns, use `rename()`:

``` r
dt %>% rename(pa = `Parental age`)
```

    # # A tibble: 120 x 5
    #       pa id     `time post-infection` `fecal egg count` `number of adult worms`
    #    <dbl> <chr>                  <dbl>             <dbl>                   <dbl>
    #  1    15 ES11/A                    11              14.6                      NA
    #  2    15 ES11/A                    14              21.1                      NA
    #  3    15 ES11/A                    18              16.8                      NA
    #  4    15 ES11/A                    21              31.0                      NA
    #  5    15 ES11/A                    25              21.8                      NA
    #  6    15 ES11/A                    28              19.2                      39
    #  7    15 ES12/B                    11              25.9                      NA
    #  8    15 ES12/B                    14              19.4                      NA
    #  9    15 ES12/B                    18              22.4                      NA
    # 10    15 ES12/B                    21              61.4                      NA
    # # … with 110 more rows
…
# An example: from tidy to messy

The data we are using are in tidy format, but suppose you want to
produce a table for your paper. For each parental age, you want to show
the mean number of eggs by `time post-infection`. We know how to compute
the statistics:

``` r
for_table <- dt %>% 
  group_by(`Parental age`, `time post-infection`) %>% 
  summarise(eggs = mean(`fecal egg count`))
for_table
```

    # # A tibble: 24 x 3
    # # Groups:   Parental age [4]
    #    `Parental age` `time post-infection`  eggs
    #             <dbl>                 <dbl> <dbl>
    #  1             15                    11  22.4
    #  2             15                    14  NA  
    #  3             15                    18  19.0
    #  4             15                    21  40.5
    #  5             15                    25  29.6
    #  6             15                    28  20.2
    #  7             45                    11  13.1
    #  8             45                    14  16.0
    #  9             45                    18  14.2
    # 10             45                    21  15.6
    # # … with 14 more rows
…
Now let’s add 1 to the starting point (because that is the row
containing the names), and add at the front a new row for plot 1:

``` r
starting <- rbind(tibble(plot = "plot 1", start = 1), 
                  starting %>% mutate(start = start + 1))
starting
```

    # # A tibble: 24 x 2
    #    plot    start
    #    <chr>   <dbl>
    #  1 plot 1      1
    #  2 plot 2     17
    #  3 plot 3     33
    #  4 plot 4     49
    #  5 plot 5     65
    #  6 plot 6     81
    #  7 plot 7     97
    #  8 plot 8    113
    #  9 plot 9    129
    # 10 plot 10   145
    # # … with 14 more rows

Now we want to find where each data set ends. It will be the starting
point of the next one minus 3:

``` r
starting <- starting %>% mutate(end = lead(start) - 3)
starting
```

    # # A tibble: 24 x 3
    #    plot    start   end
    #    <chr>   <dbl> <dbl>
    #  1 plot 1      1    14
    #  2 plot 2     17    30
    #  3 plot 3     33    46
    #  4 plot 4     49    62
    #  5 plot 5     65    78
    #  6 plot 6     81    94
    #  7 plot 7     97   110
    #  8 plot 8    113   126
    #  9 plot 9    129   142
    # 10 plot 10   145   158
    # # … with 14 more rows
…
Now it is easy to compute statistics on the data set. For example:

``` r
my_data %>% 
  group_by(from, to) %>% 
  summarise(num = n(), 
            mean = mean(frequency), 
            sd = sd(frequency)) %>% 
  arrange(desc(mean))
```

    # # A tibble: 37 x 5
    # # Groups:   from [14]
    #    from               to                       num  mean    sd
    #    <chr>              <chr>                  <int> <dbl> <dbl>
    #  1 Triticum_aestivum  Sitobion_avenae           24  50.4 39.0 
    #  2 Cirsium_arvense    Uroleucon_sp               4  41.2 48.7 
    #  3 Sonchus_oleracerus Uroleucon_sonchi           2  37   24.0 
    #  4 Chenopodium_album  Aphis_fabae                5  26   19.5 
    #  5 Rumex_sp           Aphis_fabae                1  21   NA   
    #  6 Uroleucon_sp       Aphidius_funebris          4  15.5 22.4 
    #  7 Triticum_aestivum  Metopolophium_dirhodum    21  11.5  7.48
    #  8 Sitobion_avenae    Aphidius_rhopalosiphi     24  10.0  7.87
    #  9 Galium_aparine     Aphis_fabae                1  10   NA   
    # 10 Uroleucon_sp       Binodoxys_centaureae       2   9.5  7.78
    # # … with 27 more rows
…
