Hypothesis testing â€” Data lab
…
# [1] 2

Not bad! This example shows that controlling for multiple testing is essential when performing this type of analysis (lest ending up with a â€œdead salmon resultâ€). You can read about the problem of multiple comparisons here. A very good history of the problem, with neat explanations and examples is here.

How to fool yourself with p-hacking (and possibly get fired!)

We are going to try our hand at p-hacking, to show how easy it is to get fooled when you have a sufficiently large and complex data set. The file data/medals.csv contains the total number of medals won at the Olympic games (Summer or Winter) by country, sport and gender. We have a simple, and reasonable (?) hypothesis: because the amount of money available to Olympic teams is finite, whenever a country invests in the male team, this will be at the detriment of the female team. To test this hypothesis, we measure whether the number of medals won by a national female team in a year is negatively correlated with the number of medals won by the male team.

Letâ€™s read the data, and take a peak:

dt <- read_csv("data/medals.csv")
dt

# # A tibble: 6,915 x 5
#    NOC    Year Sport         F     M
#    <chr> <int> <chr>     <int> <int>
#  1 AFG    2008 Taekwondo     0     1
#  2 AFG    2012 Taekwondo     0     1
#  3 AHO    1988 Sailing       0     1
#  4 ALG    1984 Boxing        0     2
#  5 ALG    1992 Athletics     1     0
#  6 ALG    1992 Boxing        0     1
#  7 ALG    1996 Athletics     0     1
#  8 ALG    1996 Boxing        0     2
#  9 ALG    2000 Athletics     1     3
# 10 ALG    2000 Boxing        0     1
# # ... with 6,905 more rows
…
