Linear models â€” Data lab
…
# read the data
# Original URL
# https://raw.githubusercontent.com/raleighlittles/UC-Employee-Salaries/master/UCOP%20Database_Parsed_2017.txt
dt <- read_csv("https://tinyurl.com/y6uq8zgj", quote = "'") # this will fail on about 1% of the data, but it's ok
# rename cols for easy access
dt <- dt %>% rename(loc = `'location'`, title = `'title'`, pay = `'gross pay'`) %>% select(id, loc, title, pay)
# get only profs
dt <- dt %>% filter(title %in% c("PROF-AY", "ASSOC PROF-AY", "ASST PROF-AY", 
                                 "PROF-AY-B/E/E", "PROF-HCOMP", "ASST PROF-AY-B/E/E", 
                                 "ASSOC PROF-AY-B/E/E", "ASSOC PROF-HCOMP", "ASST PROF-HCOMP"))
# remove those making less than 30k (probably there only for a period)
dt <- dt %>% filter(pay > 30000)
dt

# # A tibble: 9,318 x 4
#        id loc           title               pay
#     <int> <chr>         <chr>             <dbl>
#  1  85458 Santa Cruz    ASSOC PROF-AY    119851
#  2 110945 Los Angeles   PROF-AY          350526
#  3 112576 San Diego     PROF-HCOMP       279083
#  4 112619 San Diego     PROF-HCOMP       230668
#  5 112646 San Diego     PROF-AY          234850
#  6 112667 San Francisco ASSOC PROF-HCOMP 180833
#  7 112679 Irvine        PROF-AY          134022
#  8 112682 San Francisco PROF-HCOMP       617279
#  9 112683 Irvine        PROF-AY          191508
# 10 112684 Riverside     PROF-AY-B/E/E    354846
# # ... with 9,308 more rows
…
