Distributions and their properties: Data Lab
…
Discrete vs.continuous

Discrete means that the quantity can only assume certain values (e.g., number of births can only be integer, age in years is integer, male/female is categorical, taking only two values, etc.). Continuous means that your values can fall in between any two values (e.g., height, age when measured continuously, weight, solar radiance, temperature, etc.).

To see the difference, were going to look at number of offspring and weight of the mother using the data from:

ODea RE, Vega-Trejo R, Head ML, Jennions MD (2015) Maternal effects on offspring size and number in mosquitofish, Gambusia holbrooki. Ecology and Evolution 5(14): 2945-2955.

# Original URL
# https://datadryad.org/bitstream/handle/10255/dryad.90634/DryadData.xlsx
dat <- read_xlsx_from_url("https://tinyurl.com/y9v8lmks")
dat

# # A tibble: 66 x 4
#    Female_ID Female_Size Number_of_Offspring Offspring_Size
#        <dbl>       <dbl>               <dbl>          <dbl>
#  1         1        25.4                   7           7.13
#  2         2        42.8                  38           7.66
#  3         3        27.4                  15           6.75
#  4         4        44.0                  63           7.71
#  5         5        47.6                 104           7.49
#  6         6        28.8                   6           7.76
#  7         7        26.6                  17           6.98
#  8         8        26.7                   3           7.62
#  9         9        44.7                  49           7.80
# 10        10        31.4                  14           7.07
# # ... with 56 more rows
…
